﻿"Start IP","End IP",Time
20.192.0.0,20.255.255.255,03/02/2024
13.40.0.0,13.43.255.255,03/02/2024
74.234.0.0,74.235.255.255,03/02/2024
3.208.0.0,3.223.255.255,03/02/2024
162.19.0.0,162.19.255.255,03/02/2024
70.32.64.0,70.32.127.255,03/02/2024
34.128.0.0,34.191.255.255,03/02/2024
43.155.128.0,43.155.255.255,04/02/2024
43.163.0.0,43.163.127.255,04/02/2024
82.80.246.0,82.80.255.255,10/02/2024
52.0.0.0,52.79.255.255,11/02/2024
23.96.0.0,23.103.255.255,13/02/2024
13.126.0.0,13.127.255.255,13/02/2024
35.192.0.0,35.207.255.255,13/02/2024
13.64.0.0,13.107.255.255,13/02/2024
144.76.0.0,144.76.255.255,13/02/2024
35.208.0.0,35.247.255.255,20/02/2024
34.4.5.0,34.63.255.255,20/02/2024
34.64.0.0,34.127.255.255,20/02/2024
35.184.0.0,35.191.255.255,28/02/2024
46.105.0.0,46.105.255.255,28/02/2024
13.232.0.0,13.235.255.255,07/03/2024
34.192.0.0,34.255.255.255,07/03/2024
203.192.192.0,203.192.255.255,09/03/2024
202.172.24.0,202.172.31.255,09/03/2024
103.212.116.0,103.212.119.255,09/03/2024
143.244.128.0,143.244.255.255,11/03/2024
103.94.136.0,103.94.139.255,12/03/2024
115.72.0.0,115.79.255.255,12/03/2024
180.242.192.0,180.242.223.255,14/03/2024
183.82.0.0,183.83.255.255,18/03/2024
182.253.158.0,182.253.159.255,18/03/2024
159.192.0.0,159.192.127.255,18/03/2024
124.43.0.0,124.43.15.255,20/03/2024
156.221.0.0,156.221.255.255,20/03/2024
200.6.82.0,200.6.82.255,22/03/2024
113.160.0.0,113.191.255.255,22/03/2024
209.150.147.0,209.150.147.255,27/03/2024
162.213.248.0,162.213.255.255,27/03/2024
14.160.0.0,14.191.255.255,27/03/2024
199.231.84.0,199.231.87.255,27/03/2024
198.71.128.0,198.71.255.255,27/03/2024
104.16.0.0,104.31.255.255,27/03/2024
103.59.75.0,103.59.75.255,30/03/2024
180.180.0.0,180.180.255.255,30/03/2024
3.224.0.0,3.239.255.255,30/03/2024
145.239.0.0,145.239.255.255,03/04/2024
147.75.64.0,147.75.95.255,03/04/2024
143.110.128.0,143.110.255.255,03/04/2024
110.169.0.0,110.169.127.255,03/04/2024
20.33.0.0,20.128.255.255,03/04/2024
142.93.0.0,142.93.255.255,03/04/2024
164.132.0.0,164.132.255.255,03/04/2024
94.245.64.0,94.245.127.255,03/04/2024
213.136.80.0,213.136.94.255,03/04/2024
103.28.52.0,103.28.53.255,04/04/2024
123.16.0.0,123.31.255.255,04/04/2024
79.143.92.0,79.143.93.255,04/04/2024
161.35.0.0,161.35.255.255,04/04/2024
162.240.0.0,162.241.255.255,04/04/2024
186.167.80.0,186.167.80.255,06/04/2024
165.232.32.0,165.232.191.255,06/04/2024
45.96.0.0,45.99.255.255,07/04/2024
181.2.0.0,181.3.255.255,07/04/2024
184.168.0.0,184.168.255.255,09/04/2024
95.224.0.0,95.239.255.255,12/04/2024
45.70.156.0,45.70.159.255,12/04/2024
94.200.46.0,94.200.46.255,12/04/2024
58.187.64.0,58.187.79.255,14/04/2024
178.221.48.0,178.221.255.255,14/04/2024
116.96.0.0,116.111.255.255,14/04/2024
46.151.136.0,46.151.143.255,14/04/2024
181.177.236.0,181.177.237.255,14/04/2024
171.97.0.0,171.97.127.255,14/04/2024
58.97.216.0,58.97.223.255,14/04/2024
103.65.202.0,103.65.203.255,14/04/2024
37.236.0.0,37.237.255.255,14/04/2024
157.100.138.0,157.100.138.255,14/04/2024
91.106.41.0,91.106.41.255,14/04/2024
47.31.0.0,47.31.255.255,14/04/2024
149.3.0.0,149.3.100.255,14/04/2024
110.235.224.0,110.235.239.255,14/04/2024
95.159.64.0,95.159.127.255,14/04/2024
177.156.64.0,177.156.95.255,14/04/2024
123.231.148.40,123.231.148.47,14/04/2024
190.2.144.0,190.2.159.255,14/04/2024
110.138.80.0,110.138.111.255,14/04/2024
1.55.224.0,1.55.239.255,14/04/2024
188.253.192.0,188.253.255.255,14/04/2024
45.132.227.0,45.132.227.255,14/04/2024
64.227.128.0,64.227.191.255,14/04/2024
208.78.42.0,208.78.42.255,14/04/2024
103.87.214.0,103.87.214.255,14/04/2024
195.95.147.0,195.95.147.255,14/04/2024
171.224.0.0,171.255.255.255,14/04/2024
154.240.0.0,154.255.255.255,14/04/2024
192.200.148.0,192.200.151.255,14/04/2024
104.237.128.0,104.237.159.255,14/04/2024
96.30.64.0,96.30.79.255,14/04/2024
216.131.74.0,216.131.75.255,14/04/2024
79.106.128.0,79.106.159.255,14/04/2024
163.5.241.0,163.5.241.255,14/04/2024
27.64.0.0,27.79.255.255,14/04/2024
152.58.0.0,152.58.255.255,14/04/2024
31.148.51.0,31.148.51.255,14/04/2024
194.32.120.0,194.32.120.255,14/04/2024
89.201.128.0,89.201.255.255,14/04/2024
80.93.112.0,80.93.127.255,14/04/2024
216.131.76.0,216.131.77.255,14/04/2024
185.201.30.0,185.201.30.255,14/04/2024
3.0.0.0,3.127.255.255,14/04/2024
102.88.0.0,102.95.255.255,14/04/2024
59.176.0.0,59.185.255.255,14/04/2024
193.148.18.0,193.148.18.255,14/04/2024
167.71.0.0,167.71.255.255,14/04/2024
188.247.88.0,188.247.88.255,14/04/2024
112.135.64.0,112.135.64.255,14/04/2024
185.12.224.0,185.12.227.255,14/04/2024
177.10.255.0,177.10.255.255,14/04/2024
103.152.100.0,103.152.101.255,14/04/2024
158.140.160.0,158.140.187.255,14/04/2024
104.129.32.0,104.129.33.255,14/04/2024
203.106.64.0,203.106.127.255,14/04/2024
1.2.192.0,1.2.255.255,14/04/2024
80.253.224.0,80.253.239.255,14/04/2024
185.198.240.0,185.198.240.255,14/04/2024
198.199.64.0,198.199.127.255,14/04/2024
87.98.128.0,87.98.255.255,14/04/2024
15.204.0.0,15.204.255.255,14/04/2024
173.255.172.0,173.255.172.255,14/04/2024
1.54.176.0,1.54.191.255,14/04/2024
173.239.254.0,173.239.254.255,14/04/2024
85.173.96.0,85.173.127.255,14/04/2024
155.133.5.0,155.133.5.255,14/04/2024
46.32.184.0,46.32.187.255,14/04/2024
212.102.40.128,212.102.41.255,14/04/2024
176.120.72.0,176.120.72.255,14/04/2024
182.0.0.0,182.15.255.255,14/04/2024
190.238.192.0,190.238.223.255,14/04/2024
103.19.130.0,103.19.130.255,14/04/2024
152.207.192.0,152.207.223.255,14/04/2024
178.131.128.0,178.131.255.255,14/04/2024
137.59.228.0,137.59.231.255,14/04/2024
197.36.0.0,197.37.255.255,14/04/2024
83.139.23.0,83.139.23.255,14/04/2024
94.69.192.0,94.70.127.255,14/04/2024
125.165.144.0,125.165.159.255,14/04/2024
105.110.0.0,105.110.127.255,14/04/2024
103.115.24.0,103.115.24.255,14/04/2024
41.98.128.0,41.98.255.255,14/04/2024
36.64.0.0,36.95.255.255,14/04/2024
14.102.0.0,14.102.127.255,14/04/2024
103.47.132.0,103.47.135.255,14/04/2024
14.224.0.0,14.255.255.255,14/04/2024
103.198.128.0,103.198.128.255,14/04/2024
103.110.236.0,103.110.239.255,14/04/2024
177.10.187.0,177.10.187.255,14/04/2024
86.0.0.0,86.31.255.255,14/04/2024
146.19.91.0,146.19.91.255,14/04/2024
209.97.128.0,209.97.191.255,14/04/2024
212.3.192.0,212.3.223.255,14/04/2024
45.71.37.0,45.71.37.255,14/04/2024
212.3.148.0,212.3.151.255,14/04/2024
187.192.248.0,187.192.255.255,14/04/2024
154.47.25.0,154.47.25.255,14/04/2024
46.222.0.0,46.222.127.255,14/04/2024
205.185.222.0,205.185.222.255,14/04/2024
41.109.0.0,41.109.63.255,14/04/2024
185.166.27.0,185.166.27.255,14/04/2024
165.227.0.0,165.227.255.255,14/04/2024
178.128.192.0,178.128.207.255,14/04/2024
180.251.192.0,180.251.255.255,14/04/2024
223.206.0.0,223.207.255.255,14/04/2024
81.181.48.0,81.181.63.255,14/04/2024
2.58.44.0,2.58.44.255,14/04/2024
213.208.172.0,213.208.184.255,14/04/2024
45.16.0.0,45.31.255.255,14/04/2024
41.103.224.0,41.103.255.255,14/04/2024
177.96.0.0,177.99.255.255,14/04/2024
45.238.228.0,45.238.231.255,14/04/2024
45.86.210.0,45.86.210.255,14/04/2024
217.160.0.0,217.160.255.255,14/04/2024
45.132.115.0,45.132.115.255,14/04/2024
146.158.96.0,146.158.127.255,14/04/2024
212.102.63.0,212.102.63.255,14/04/2024
103.55.146.0,103.55.146.255,14/04/2024
42.106.0.0,42.107.255.255,14/04/2024
85.203.36.0,85.203.36.255,14/04/2024
185.47.253.0,185.47.253.255,14/04/2024
92.223.121.0,92.223.121.255,14/04/2024
197.48.0.0,197.55.255.255,14/04/2024
180.72.0.0,180.75.255.255,14/04/2024
197.116.0.0,197.116.255.255,14/04/2024
187.190.0.0,187.190.255.255,14/04/2024
200.3.248.0,200.3.255.255,14/04/2024
103.121.18.0,103.121.18.255,14/04/2024
51.39.0.0,51.39.255.255,14/04/2024
41.44.0.0,41.47.255.255,14/04/2024
154.73.54.64,154.73.54.127,14/04/2024
181.196.0.0,181.196.255.255,14/04/2024
202.136.240.0,202.136.247.255,14/04/2024
114.120.0.0,114.126.255.255,14/04/2024
188.49.0.0,188.49.255.255,14/04/2024
51.158.0.0,51.159.255.255,14/04/2024
72.50.0.0,72.50.127.255,14/04/2024
212.109.30.0,212.109.30.255,14/04/2024
117.4.0.0,117.4.255.255,14/04/2024
105.168.0.0,105.169.255.255,14/04/2024
185.202.221.0,185.202.221.255,14/04/2024
41.97.0.0,41.97.255.255,14/04/2024
201.50.0.0,201.51.255.255,14/04/2024
180.252.0.0,180.252.63.255,14/04/2024
143.255.108.0,143.255.111.255,14/04/2024
180.242.64.0,180.242.95.255,19/04/2024
103.247.12.0,103.247.15.255,21/04/2024
177.55.48.0,177.55.63.255,21/04/2024
122.176.0.0,122.176.255.255,22/04/2024
185.217.189.0,185.217.189.255,24/04/2024
103.224.152.0,103.224.155.255,29/04/2024
45.251.5.0,45.251.5.255,29/04/2024
125.25.197.0,125.25.197.255,29/04/2024
58.97.224.0,58.97.227.255,29/04/2024
196.200.32.0,196.200.32.255,29/04/2024
223.204.0.0,223.205.255.255,29/04/2024
103.19.48.0,103.19.49.255,29/04/2024
178.223.206.0,178.223.223.255,29/04/2024
148.66.64.0,148.66.127.255,29/04/2024
110.224.0.0,110.227.255.255,29/04/2024
134.236.0.0,134.236.127.255,29/04/2024
112.134.232.0,112.134.232.255,29/04/2024
178.135.16.0,178.135.23.255,29/04/2024
171.103.0.0,171.103.255.255,29/04/2024
157.48.0.0,157.48.255.255,29/04/2024
122.175.128.0,122.175.255.255,29/04/2024
171.79.96.0,171.79.111.255,29/04/2024
37.222.0.0,37.223.255.255,29/04/2024
103.180.2.0,103.180.3.255,29/04/2024
171.6.0.0,171.7.255.255,29/04/2024
2.185.20.0,2.185.31.255,29/04/2024
154.176.0.0,154.191.255.255,29/04/2024
186.1.0.0,186.1.63.255,29/04/2024
181.191.232.0,181.191.235.255,29/04/2024
103.141.108.0,103.141.109.255,29/04/2024
182.232.176.0,182.232.191.255,29/04/2024
154.72.152.0,154.72.155.255,29/04/2024
202.91.40.0,202.91.40.255,29/04/2024
94.249.64.0,94.249.100.255,29/04/2024
103.97.212.0,103.97.215.255,29/04/2024
197.32.0.0,197.35.255.255,29/04/2024
187.240.0.0,187.247.255.255,29/04/2024
185.222.94.0,185.222.94.255,29/04/2024
180.241.32.0,180.241.63.255,29/04/2024
113.53.0.0,113.53.255.255,29/04/2024
42.202.0.0,42.203.255.255,03/05/2024
52.224.0.0,52.255.255.255,10/05/2024
104.196.0.0,104.199.255.255,10/05/2024
167.86.96.0,167.86.127.255,12/05/2024
94.247.132.0,94.247.135.255,14/05/2024
212.71.248.0,212.71.251.255,15/05/2024
209.126.16.0,209.126.31.255,15/05/2024
46.22.48.0,46.22.63.255,06/06/2024
194.26.229.0,194.26.229.254,08/06/2024
45.65.212.0,45.65.215.255,25/06/2024
201.22.0.0,201.22.255.255,25/06/2024
84.247.160.0,84.247.191.255,26/06/2024
45.131.195.0,45.131.195.255,27/06/2024
82.223.0.0,82.223.255.255,28/06/2024
110.152.0.0,110.155.255.255,29/06/2024
185.221.166.0,185.221.167.255,04/07/2024
154.57.223.0,154.57.223.255,04/07/2024
169.150.218.0,169.150.218.255,05/07/2024
107.189.0.0,107.189.31.255,06/07/2024
130.255.72.0,130.255.79.255,12/07/2024
80.88.80.0,80.88.95.255,12/07/2024
5.101.157.0,5.101.157.255,14/07/2024
185.225.33.0,185.225.33.255,14/07/2024
39.96.0.0,39.108.255.255,14/07/2024
94.158.176.0,94.158.179.255,16/07/2024
196.245.128.0,196.245.191.255,17/07/2024
92.205.0.0,92.205.31.255,19/07/2024
49.34.0.0,49.34.255.255,22/07/2024
5.101.156.0,5.101.156.255,23/07/2024
92.205.48.0,92.205.55.255,07/08/2024
192.241.128.0,192.241.255.255,07/08/2024
47.92.0.0,47.95.255.255,08/08/2024
163.123.192.0,163.123.192.255,11/08/2024
43.133.160.0,43.133.191.255,11/08/2024
41.33.0.0,41.33.255.255,11/08/2024
89.46.248.0,89.46.251.255,11/08/2024
51.195.0.0,51.195.255.255,11/08/2024
103.156.70.0,103.156.71.255,11/08/2024
177.55.176.0,177.55.191.255,11/08/2024
94.23.0.0,94.23.255.255,11/08/2024
117.128.0.0,117.191.255.255,11/08/2024
189.240.0.0,189.240.255.255,11/08/2024
109.70.100.0,109.70.100.255,25/08/2024
103.183.118.0,103.183.119.255,25/08/2024
103.174.206.0,103.174.207.255,28/08/2024
